<svg width="64" height="64" viewBox="0 0 64 64" fill="none" xmlns="http://www.w3.org/2000/svg">
<rect width="64" height="64" rx="32" fill="#EBF0ED"/>
<g clip-path="url(#clip0_5152_11300)">
<path d="M21.333 16H37.3153V18.6667H21.333V16ZM15.9819 21.3333H18.6486V24H15.9819V21.3333ZM15.9819 16H18.6486V18.6667H15.9819V16ZM15.9819 26.6844H18.6664V29.3511H15.9819V26.6844Z" fill="#0371D8"/>
<path d="M18.6665 31.9998H13.3332V13.3154H39.9998V21.3332H42.6665V14.2221C42.6665 13.2791 42.2919 12.3747 41.6251 11.7079C40.9583 11.0411 40.0539 10.6665 39.1109 10.6665H14.2221C13.2791 10.6665 12.3747 11.0411 11.7079 11.7079C11.0411 12.3747 10.6665 13.2791 10.6665 14.2221V31.0754C10.6665 32.0184 11.0411 32.9228 11.7079 33.5896C12.3747 34.2563 13.2791 34.6309 14.2221 34.6309H18.6665V31.9998Z" fill="black"/>
<path d="M49.7775 22.2222H24.8886C23.9456 22.2222 23.0412 22.5968 22.3744 23.2636C21.7076 23.9304 21.333 24.8347 21.333 25.7777V42.6666C21.333 43.6096 21.7076 44.514 22.3744 45.1808C23.0412 45.8476 23.9456 46.2222 24.8886 46.2222H34.7197V48.9422H31.9997V51.5555H42.6663V48.9066H39.9997V46.2222H49.7775C50.7204 46.2222 51.6248 45.8476 52.2916 45.1808C52.9584 44.514 53.333 43.6096 53.333 42.6666V25.7777C53.333 24.8347 52.9584 23.9304 52.2916 23.2636C51.6248 22.5968 50.7204 22.2222 49.7775 22.2222ZM50.6841 43.5555H24.0175V24.8888H50.6841V43.5555Z" fill="black"/>
<path d="M35.0476 32L32 34.6667L35.0476 37.3333M39.619 32L42.6667 34.6667L39.619 37.3333" stroke="#0371D8" stroke-width="1.25" stroke-linecap="round" stroke-linejoin="round"/>
</g>
<defs>
<clipPath id="clip0_5152_11300">
<rect width="42.6667" height="42.6667" fill="white" transform="translate(10.6665 10.6665)"/>
</clipPath>
</defs>
</svg>
