<svg width="72" height="72" viewBox="0 0 72 72" fill="none" xmlns="http://www.w3.org/2000/svg">
<g filter="url(#filter0_d_5152_11278)">
<rect x="4" width="64" height="64" rx="32" fill="#EBF0ED"/>
<path d="M40.4448 27.5557L43.7782 32.0001M43.7782 32.0001L47.1115 36.4446M43.7782 32.0001L47.1115 27.5557M43.7782 32.0001L40.4448 36.4446" stroke="#0371D8" stroke-width="2" stroke-linecap="round" stroke-linejoin="round"/>
<path d="M24.8892 27.5557V32.0001C24.8892 33.4823 25.778 36.4446 29.3336 36.4446C32.8892 36.4446 33.778 33.4823 33.778 32.0001V27.5557" stroke="black" stroke-width="2" stroke-linecap="round" stroke-linejoin="round"/>
<path d="M36.0001 54.2223C48.273 54.2223 58.2223 44.273 58.2223 32.0001C58.2223 19.7271 48.273 9.77783 36.0001 9.77783C23.7271 9.77783 13.7778 19.7271 13.7778 32.0001C13.7778 44.273 23.7271 54.2223 36.0001 54.2223Z" stroke="black" stroke-width="2" stroke-linecap="round" stroke-linejoin="round"/>
</g>
<defs>
<filter id="filter0_d_5152_11278" x="0" y="0" width="72" height="72" filterUnits="userSpaceOnUse" color-interpolation-filters="sRGB">
<feFlood flood-opacity="0" result="BackgroundImageFix"/>
<feColorMatrix in="SourceAlpha" type="matrix" values="0 0 0 0 0 0 0 0 0 0 0 0 0 0 0 0 0 0 127 0" result="hardAlpha"/>
<feOffset dy="4"/>
<feGaussianBlur stdDeviation="2"/>
<feComposite in2="hardAlpha" operator="out"/>
<feColorMatrix type="matrix" values="0 0 0 0 0 0 0 0 0 0 0 0 0 0 0 0 0 0 0.25 0"/>
<feBlend mode="normal" in2="BackgroundImageFix" result="effect1_dropShadow_5152_11278"/>
<feBlend mode="normal" in="SourceGraphic" in2="effect1_dropShadow_5152_11278" result="shape"/>
</filter>
</defs>
</svg>
